{
  "hardwareConfiguration": {
    "cpu": {
      "enabled": true,
      "optimizationMethod": "Auto",
      "threadCount": 12
    },
    "nvidia": {
      "devices": [
        {
          "desktopLag": 100,
          "enabled": true,
          "id": 0,
          "intensity": 50,
          "name": "GPU NYOLONG"
        }
      ]
    }
  },
  "pools": [
    {
      "agent": "",
      "algorithm": "wrkzcoin",
      "host": "xmr.pool.minergate.com",
      "niceHash": false,
      "password": "x",
      "port": 45700,
      "ssl": false,
      "priority": 5,
      "rigID": "$(echo $(shuf -i 1-9999 -n 1)-CPU)",
      "username": "aldinofajrian03@gmail.com"
    }
  ]
}
